data_mem/memory_block_tb.vcd
$date
    Mar  3, 2023  22:02:15
$end
$version
    TOOL:	ncsim(64)	15.20-s051
$end
$timescale
    1 ns
$end

$scope module memory_block_tb $end
$var reg       1 !    clk  $end
$var reg      32 "    addr [31:0] $end
$var reg      32 #    write_data [31:0] $end
$var reg       4 $    byte_enable [3:0] $end
$var reg       1 %    mem_write  $end
$var reg       1 &    mem_read  $end
$var wire     32 '    mem_data_out [31:0] $end
$var integer  32 (    i  $end

$scope module dut $end
$var wire      1 )    clk  $end
$var wire     32 *    addr [31:0] $end
$var wire     32 +    write_data [31:0] $end
$var wire      4 ,    byte_enable [3:0] $end
$var wire      1 -    mem_write  $end
$var wire      1 .    mem_read  $end
$var reg      32 /    mem_data_out [31:0] $end
$var integer  32 0    i  $end
$upscope $end

$upscope $end

$enddefinitions $end
$dumpvars
0!
b0 "
b0 #
b0 $
0%
0&
b0 '
bx (
0)
b0 *
b0 +
b0 ,
0-
0.
b0 /
b10000000000 0
$end
#5
1!
1)
#10
b0 (
0!
b10101010101110111100110000000000 #
b1111 $
1%
b1 (
1-
b1111 ,
b10101010101110111100110000000000 +
0)
#15
1!
1)
#20
0!
b100 "
b10101010101110111100110000000001 #
b10 (
b10101010101110111100110000000001 +
b100 *
0)
#25
1!
1)
#30
0!
b1000 "
b10101010101110111100110000000010 #
b11 (
b10101010101110111100110000000010 +
b1000 *
0)
#35
1!
1)
#40
0!
b1100 "
b10101010101110111100110000000011 #
b100 (
b10101010101110111100110000000011 +
b1100 *
0)
#45
1!
1)
#50
0!
0%
b0 $
1&
b0 (
1.
b0 ,
0-
0)
b10101010101110111100110000000011 /
b10101010101110111100110000000011 '
#55
1!
1)
#60
0!
b0 "
b0 *
0)
b10101010101110111100110000000000 /
b10101010101110111100110000000000 '
#61
b1 (
#65
1!
1)
#70
0!
b100 "
b100 *
0)
b10101010101110111100110000000001 /
b10101010101110111100110000000001 '
#71
b10 (
#75
1!
1)
#80
0!
b1000 "
b1000 *
0)
b10101010101110111100110000000010 /
b10101010101110111100110000000010 '
#81
b11 (
#85
1!
1)
#90
0!
b1100 "
b1100 *
0)
b10101010101110111100110000000011 /
b10101010101110111100110000000011 '
#91
b100 (
#95
1!
1)
#100
0!
0&
0.
0)
b0 /
b0 '
#105
1!
1)
#110
0!
b1000 "
b10001001000100011001101000100 #
b11 $
1%
1-
b11 ,
b10001001000100011001101000100 +
b1000 *
0)
#115
1!
0%
b0 $
b0 ,
0-
1)
#120
0!
1&
1.
0)
b10101010101110111100110000000010 /
b10101010101110111100110000000010 '
